<?xml version="1.0" encoding="UTF-8" standalone="no"?>
<!-- Generator: Adobe Illustrator 15.1.0, SVG Export Plug-In . SVG Version: 6.00 Build 0)  -->

<svg
   xmlns:dc="http://purl.org/dc/elements/1.1/"
   xmlns:cc="http://creativecommons.org/ns#"
   xmlns:rdf="http://www.w3.org/1999/02/22-rdf-syntax-ns#"
   xmlns:svg="http://www.w3.org/2000/svg"
   xmlns="http://www.w3.org/2000/svg"
   xmlns:sodipodi="http://sodipodi.sourceforge.net/DTD/sodipodi-0.dtd"
   xmlns:inkscape="http://www.inkscape.org/namespaces/inkscape"
   version="1.1"
   id="Layer_1"
   x="0px"
   y="0px"
   width="180px"
   height="48px"
   viewBox="0 0 180 48"
   enable-background="new 0 0 180 48"
   xml:space="preserve"
   inkscape:version="0.91 r13725"
   sodipodi:docname="DataToolBox.svg"><metadata
     id="metadata25"><rdf:RDF><cc:Work
         rdf:about=""><dc:format>image/svg+xml</dc:format><dc:type
           rdf:resource="http://purl.org/dc/dcmitype/StillImage" /></cc:Work></rdf:RDF></metadata><defs
     id="defs23" /><sodipodi:namedview
     pagecolor="#ffffff"
     bordercolor="#666666"
     borderopacity="1"
     objecttolerance="10"
     gridtolerance="10"
     guidetolerance="10"
     inkscape:pageopacity="0"
     inkscape:pageshadow="2"
     inkscape:window-width="1036"
     inkscape:window-height="675"
     id="namedview21"
     showgrid="false"
     inkscape:zoom="6.6222222"
     inkscape:cx="81.552885"
     inkscape:cy="31.394905"
     inkscape:window-x="547"
     inkscape:window-y="195"
     inkscape:window-maximized="0"
     inkscape:current-layer="g3" /><g
     id="g3"><rect
       width="180"
       height="48"
       id="rect5"
       style="opacity:0" /><path
       fill="#FFFFFF"
       d="M80.935,28.503c0,0.241-0.054,0.51-0.134,0.752c-0.376,1.1-1.449,2.174-3.14,2.174   c-1.208,0-2.228-0.725-2.228-2.255c0-2.522,2.926-2.979,5.502-2.926V28.503z M83.431,32.878c-0.161-0.886-0.215-1.986-0.215-3.113   v-4.858c0-2.604-0.966-5.314-4.938-5.314c-1.637,0-3.194,0.456-4.268,1.154l0.537,1.557c0.913-0.59,2.174-0.966,3.382-0.966   c2.657,0,2.953,1.933,2.953,3.006v0.269c-5.019-0.027-7.811,1.69-7.811,4.831c0,1.879,1.342,3.73,3.972,3.73   c1.852,0,3.248-0.912,3.973-1.933h0.081l0.188,1.638H83.431z M65.207,16.773v3.114h-2.013v1.798h2.013v7.086   c0,1.529,0.242,2.684,0.913,3.382c0.563,0.645,1.449,0.993,2.55,0.993c0.913,0,1.637-0.135,2.094-0.322l-0.107-1.771   c-0.295,0.081-0.751,0.161-1.369,0.161c-1.315,0-1.771-0.913-1.771-2.523v-7.005h3.382v-1.798h-3.382v-3.731L65.207,16.773z    M58.149,28.503c0,0.241-0.054,0.51-0.134,0.752c-0.376,1.1-1.449,2.174-3.14,2.174c-1.208,0-2.228-0.725-2.228-2.255   c0-2.522,2.926-2.979,5.502-2.926V28.503z M60.646,32.878c-0.161-0.886-0.215-1.986-0.215-3.113v-4.858   c0-2.604-0.966-5.314-4.938-5.314c-1.637,0-3.194,0.456-4.268,1.154l0.537,1.557c0.913-0.59,2.174-0.966,3.382-0.966   c2.657,0,2.953,1.933,2.953,3.006v0.269c-5.019-0.027-7.811,1.69-7.811,4.831c0,1.879,1.342,3.73,3.972,3.73   c1.852,0,3.248-0.912,3.973-1.933h0.081l0.188,1.638H60.646z M35.31,16.747c0.617-0.135,1.53-0.241,2.738-0.241   c4.938,0,7.354,2.71,7.327,6.978c0,4.886-2.711,7.677-7.703,7.677c-0.913,0-1.771-0.026-2.362-0.134V16.747z M32.975,32.824   c1.181,0.134,2.577,0.215,4.241,0.215c3.516,0,6.307-0.913,7.998-2.604c1.691-1.664,2.604-4.08,2.604-7.032   c0-2.926-0.939-5.02-2.55-6.495c-1.583-1.477-3.972-2.255-7.327-2.255c-1.852,0-3.543,0.161-4.965,0.376V32.824z"
       id="path7" /><path
       fill="#2196F3"
       d="M164.239,19.888l4.401,6.36l-4.616,6.63h2.604l1.879-2.926c0.482-0.778,0.939-1.476,1.368-2.254h0.054   c0.457,0.778,0.886,1.503,1.396,2.254l1.905,2.926h2.684l-4.563-6.71l4.429-6.28h-2.55l-1.825,2.764   c-0.43,0.698-0.858,1.369-1.288,2.147h-0.081c-0.429-0.725-0.832-1.396-1.314-2.12l-1.853-2.791H164.239z M156.322,21.363   c2.791,0,3.892,2.792,3.892,4.992c0,2.926-1.691,5.046-3.945,5.046c-2.309,0-3.945-2.146-3.945-4.992   C152.323,23.94,153.53,21.363,156.322,21.363z M156.376,19.592c-3.597,0-6.442,2.55-6.442,6.898c0,4.106,2.711,6.683,6.228,6.683   c3.14,0,6.469-2.093,6.469-6.897C162.63,22.303,160.106,19.592,156.376,19.592z M138.099,24.209h1.933c2.55,0,4.67,1.02,4.67,3.489   c0,2.63-2.228,3.516-4.644,3.516c-0.832,0-1.503-0.027-1.959-0.107V24.209z M138.099,16.612c0.376-0.08,0.993-0.16,2.066-0.16   c2.362,0,3.973,0.832,3.973,2.952c0,1.744-1.449,3.033-3.919,3.033h-2.12V16.612z M135.764,32.824   c0.778,0.107,2.013,0.215,3.623,0.215c2.952,0,4.992-0.537,6.254-1.691c0.913-0.886,1.53-2.066,1.53-3.623   c0-2.684-2.014-4.106-3.731-4.536v-0.054c1.906-0.697,3.061-2.228,3.061-3.973c0-1.422-0.564-2.496-1.504-3.193   c-1.127-0.913-2.63-1.315-4.965-1.315c-1.638,0-3.248,0.161-4.268,0.376V32.824z M128.813,32.878h2.362V13.821h-2.362V32.878z    M118.991,21.363c2.791,0,3.892,2.792,3.892,4.992c0,2.926-1.691,5.046-3.945,5.046c-2.309,0-3.945-2.146-3.945-4.992   C114.992,23.94,116.199,21.363,118.991,21.363z M119.045,19.592c-3.597,0-6.442,2.55-6.442,6.898c0,4.106,2.711,6.683,6.228,6.683   c3.14,0,6.469-2.093,6.469-6.897C125.299,22.303,122.775,19.592,119.045,19.592z M103.72,21.363c2.791,0,3.892,2.792,3.892,4.992   c0,2.926-1.691,5.046-3.945,5.046c-2.309,0-3.945-2.146-3.945-4.992C99.721,23.94,100.928,21.363,103.72,21.363z M103.773,19.592   c-3.597,0-6.442,2.55-6.442,6.898c0,4.106,2.711,6.683,6.228,6.683c3.14,0,6.469-2.093,6.469-6.897   C110.027,22.303,107.504,19.592,103.773,19.592z M89.818,32.878h2.362V16.773h5.529v-1.985H84.315v1.985h5.502V32.878z"
       id="path9" /><path
       fill="#2196F3"
       d="M24.871,41.855H6.469c-1.789,0-3.24-1.451-3.24-3.24V9.385c0-1.789,1.451-3.24,3.24-3.24h18.402   c1.79,0,3.241,1.451,3.241,3.24v29.23C28.112,40.404,26.661,41.855,24.871,41.855"
       id="path11" /><path
       fill-rule="evenodd"
       clip-rule="evenodd"
       fill="#FFFFFF"
       d="M10.808,10.907c0.819-0.058,1.75-0.015,2.605-0.015   c1.718,0,3.411,0,5.183,0c0.884,0,1.813-0.078,2.489,0.087c0.669,0.162,1.213,0.538,1.587,1.004   c0.407,0.507,0.597,1.062,0.597,1.981c0,1.81,0,3.238,0,5.166c0,4.809,0,9.38,0,14.239c0,0.43,0.034,0.867-0.015,1.266   c-0.167,1.364-1.281,2.355-2.708,2.461c-0.85,0.063-1.736,0-2.591,0c-1.805,0-3.361,0-5.183,0c-0.844,0-1.789,0.08-2.489-0.087   c-1.322-0.316-2.213-1.306-2.213-2.955c0-6.376,0-12.988,0-19.406c0-0.426-0.032-0.854,0.015-1.267   C8.245,11.971,9.417,11.002,10.808,10.907z M13.385,12.887c0.044,0.287,0.671,0.203,1.048,0.203c0.898,0,1.631,0,2.533,0   c0.398,0,1.014,0.08,1.004-0.262c-0.005-0.155-0.144-0.224-0.335-0.232c-1.013-0.048-1.913,0-2.882,0   c-0.357,0-0.897-0.053-1.164,0.015C13.453,12.645,13.359,12.723,13.385,12.887z M9.221,16.583c0,1.022,0,2.309,0,3.189   c0,3.854,0,7.804,0,11.69c0,0.363-0.027,0.83,0.087,0.976c0.197,0.251,1.09,0.159,1.602,0.159c3.233,0,6.34,0,9.594,0   c0.469,0,1.273,0.081,1.485-0.116c0.179-0.168,0.131-0.62,0.131-1.019c0-5.056,0-9.979,0-14.995c0-0.361,0.034-0.834-0.087-0.989   c-0.195-0.252-1.029-0.161-1.558-0.161c-3.148,0-6.241,0-9.332,0c-0.502,0-1.151-0.068-1.572,0.015   C9.1,15.426,9.221,15.998,9.221,16.583z M14.359,34.855c0.015,1.314,1.78,1.753,2.432,0.684c0.234-0.384,0.248-0.909,0.058-1.296   c-0.209-0.428-0.675-0.772-1.324-0.698C14.847,33.62,14.352,34.129,14.359,34.855z"
       id="path13" /><rect
       x="14.092"
       y="19.476"
       fill-rule="evenodd"
       clip-rule="evenodd"
       fill="#FFFFFF"
       width="3.45"
       height="3.45"
       id="rect15" /><rect
       x="18.292"
       y="17.9"
       fill-rule="evenodd"
       clip-rule="evenodd"
       fill="#FFFFFF"
       width="2.1"
       height="2.101"
       id="rect17" /><rect
       x="15.667"
       y="16.926"
       fill-rule="evenodd"
       clip-rule="evenodd"
       fill="#FFFFFF"
       width="1.65"
       height="1.65"
       id="rect19" /></g></svg>